<?xml version="1.0" encoding="UTF-8" standalone="no"?>
<!-- Created with Inkscape (http://www.inkscape.org/) -->

<svg
   xmlns:dc="http://purl.org/dc/elements/1.1/"
   xmlns:cc="http://creativecommons.org/ns#"
   xmlns:rdf="http://www.w3.org/1999/02/22-rdf-syntax-ns#"
   xmlns:svg="http://www.w3.org/2000/svg"
   xmlns="http://www.w3.org/2000/svg"
   xmlns:sodipodi="http://sodipodi.sourceforge.net/DTD/sodipodi-0.dtd"
   xmlns:inkscape="http://www.inkscape.org/namespaces/inkscape"
   width="19.682091mm"
   height="15.245035mm"
   viewBox="0 0 19.682091 15.245035"
   version="1.1"
   id="svg8"
   inkscape:version="0.92.4 (5da689c313, 2019-01-14)"
   sodipodi:docname="azure_logo.svg">
  <defs
     id="defs2" />
  <sodipodi:namedview
     id="base"
     pagecolor="#ffffff"
     bordercolor="#666666"
     borderopacity="1.0"
     inkscape:pageopacity="0.0"
     inkscape:pageshadow="2"
     inkscape:zoom="4.6135936"
     inkscape:cx="91.990118"
     inkscape:cy="16.013645"
     inkscape:document-units="mm"
     inkscape:current-layer="layer1"
     showgrid="false"
     inkscape:pagecheckerboard="true"
     fit-margin-top="0"
     fit-margin-left="0"
     fit-margin-right="0"
     fit-margin-bottom="0"
     inkscape:window-width="1967"
     inkscape:window-height="1121"
     inkscape:window-x="667"
     inkscape:window-y="117"
     inkscape:window-maximized="0" />
  <metadata
     id="metadata5">
    <rdf:RDF>
      <cc:Work
         rdf:about="">
        <dc:format>image/svg+xml</dc:format>
        <dc:type
           rdf:resource="http://purl.org/dc/dcmitype/StillImage" />
        <dc:title></dc:title>
      </cc:Work>
    </rdf:RDF>
  </metadata>
  <g
     inkscape:label="Layer 1"
     inkscape:groupmode="layer"
     id="layer1"
     transform="translate(677.9313,-313.85416)">
    <path
       style="fill:#0089d6;fill-opacity:1;stroke-width:0.01122741"
       d="m -668.82587,328.28486 c 2.52869,-0.4467 4.61725,-0.81635 4.64124,-0.82143 l 0.0436,-0.009 -2.38734,-2.83967 c -1.31303,-1.56181 -2.38733,-2.84571 -2.38733,-2.85311 0,-0.014 2.46512,-6.80244 2.47898,-6.82659 0.005,-0.008 1.68223,2.88824 4.0666,7.02087 2.23229,3.86903 4.07271,7.05907 4.08981,7.08896 l 0.0311,0.0543 -7.58715,-9.8e-4 -7.58715,-9.7e-4 4.59763,-0.81218 z m -9.10543,-0.86588 c 0,-0.004 1.1249,-1.95674 2.49978,-4.33943 l 2.49978,-4.33216 2.9132,-2.44476 c 1.60226,-1.34462 2.91752,-2.44641 2.92279,-2.44842 0.005,-0.002 -0.0158,0.051 -0.0468,0.11788 -0.031,0.0668 -1.45454,3.12011 -3.16333,6.78501 l -3.10691,6.66347 -2.25924,0.003 c -1.24258,0.002 -2.25924,-4.4e-4 -2.25924,-0.004 z"
       id="path21"
       inkscape:connector-curvature="0"
       sodipodi:nodetypes="cccsscccccccccscsccccccc" />
  </g>
</svg>
